%YAML 1.1
%TAG !u! tag:unity3d.com,2011:
--- !u!21 &2100000
Material:
  serializedVersion: 6
  m_ObjectHideFlags: 0
  m_CorrespondingSourceObject: {fileID: 0}
  m_PrefabInstance: {fileID: 0}
  m_PrefabAsset: {fileID: 0}
  m_Name: Color
  m_Shader: {fileID: 4800000, guid: 0b753814d44c06a47932b67db99a205b, type: 3}
  m_ShaderKeywords: 
  m_LightmapFlags: 4
  m_EnableInstancingVariants: 0
  m_DoubleSidedGI: 0
  m_CustomRenderQueue: -1
  stringTagMap: {}
  disabledShaderPasses: []
  m_SavedProperties:
    serializedVersion: 3
    m_TexEnvs:
    - <noninit>:
        m_Texture: {fileID: 0}
        m_Scale: {x: 1, y: 1}
        m_Offset: {x: 0, y: 0}
    - _MatCapDiff:
        m_Texture: {fileID: 2800000, guid: a39ee6ca1ebf27c47bca5fc3ecb2272b, type: 3}
        m_Scale: {x: 1, y: 1}
        m_Offset: {x: 0, y: 0}
    - _MatCapRefl:
        m_Texture: {fileID: 2800000, guid: 965e2a7aa6713cc45ab7a96ee3e8e6ab, type: 3}
        m_Scale: {x: 1, y: 1}
        m_Offset: {x: 0, y: 0}
    m_Floats:
    - <noninit>: 0
    - _EmissionStrength: 0
    - _Metallic: 0
    - _Reflection: 0.5
    - _Smoothness: 0.5
    m_Colors:
    - <noninit>: {r: 0, g: 225.57043, b: 0, a: 225.56946}
    - _Color: {r: 0.078431375, g: 0.078431375, b: 0.078431375, a: 1}
